%YAML 1.1
%TAG !u! tag:unity3d.com,2011:
--- !u!29 &1
OcclusionCullingSettings:
  m_ObjectHideFlags: 0
  serializedVersion: 2
  m_OcclusionBakeSettings:
    smallestOccluder: 5
    smallestHole: 0.25
    backfaceThreshold: 100
  m_SceneGUID: 00000000000000000000000000000000
  m_OcclusionCullingData: {fileID: 0}
--- !u!104 &2
RenderSettings:
  m_ObjectHideFlags: 0
  serializedVersion: 9
  m_Fog: 0
  m_FogColor: {r: 0.5, g: 0.5, b: 0.5, a: 1}
  m_FogMode: 3
  m_FogDensity: 0.01
  m_LinearFogStart: 0
  m_LinearFogEnd: 300
  m_AmbientSkyColor: {r: 0.212, g: 0.227, b: 0.259, a: 1}
  m_AmbientEquatorColor: {r: 0.114, g: 0.125, b: 0.133, a: 1}
  m_AmbientGroundColor: {r: 0.047, g: 0.043, b: 0.035, a: 1}
  m_AmbientIntensity: 1
  m_AmbientMode: 0
  m_SubtractiveShadowColor: {r: 0.42, g: 0.478, b: 0.627, a: 1}
  m_SkyboxMaterial: {fileID: 10304, guid: 0000000000000000f000000000000000, type: 0}
  m_HaloStrength: 0.5
  m_FlareStrength: 1
  m_FlareFadeSpeed: 3
  m_HaloTexture: {fileID: 0}
  m_SpotCookie: {fileID: 10001, guid: 0000000000000000e000000000000000, type: 0}
  m_DefaultReflectionMode: 0
  m_DefaultReflectionResolution: 128
  m_ReflectionBounces: 1
  m_ReflectionIntensity: 1
  m_CustomReflection: {fileID: 0}
  m_Sun: {fileID: 0}
  m_IndirectSpecularColor: {r: 0, g: 0, b: 0, a: 1}
  m_UseRadianceAmbientProbe: 0
--- !u!157 &3
LightmapSettings:
  m_ObjectHideFlags: 0
  serializedVersion: 12
  m_GIWorkflowMode: 1
  m_GISettings:
    serializedVersion: 2
    m_BounceScale: 1
    m_IndirectOutputScale: 1
    m_AlbedoBoost: 1
    m_EnvironmentLightingMode: 0
    m_EnableBakedLightmaps: 1
    m_EnableRealtimeLightmaps: 0
  m_LightmapEditorSettings:
    serializedVersion: 12
    m_Resolution: 2
    m_BakeResolution: 40
    m_AtlasSize: 1024
    m_AO: 0
    m_AOMaxDistance: 1
    m_CompAOExponent: 1
    m_CompAOExponentDirect: 0
    m_ExtractAmbientOcclusion: 0
    m_Padding: 2
    m_LightmapParameters: {fileID: 0}
    m_LightmapsBakeMode: 1
    m_TextureCompression: 1
    m_FinalGather: 0
    m_FinalGatherFiltering: 1
    m_FinalGatherRayCount: 256
    m_ReflectionCompression: 2
    m_MixedBakeMode: 2
    m_BakeBackend: 1
    m_PVRSampling: 1
    m_PVRDirectSampleCount: 32
    m_PVRSampleCount: 512
    m_PVRBounces: 2
    m_PVREnvironmentSampleCount: 256
    m_PVREnvironmentReferencePointCount: 2048
    m_PVRFilteringMode: 1
    m_PVRDenoiserTypeDirect: 1
    m_PVRDenoiserTypeIndirect: 1
    m_PVRDenoiserTypeAO: 1
    m_PVRFilterTypeDirect: 0
    m_PVRFilterTypeIndirect: 0
    m_PVRFilterTypeAO: 0
    m_PVREnvironmentMIS: 1
    m_PVRCulling: 1
    m_PVRFilteringGaussRadiusDirect: 1
    m_PVRFilteringGaussRadiusIndirect: 5
    m_PVRFilteringGaussRadiusAO: 2
    m_PVRFilteringAtrousPositionSigmaDirect: 0.5
    m_PVRFilteringAtrousPositionSigmaIndirect: 2
    m_PVRFilteringAtrousPositionSigmaAO: 1
    m_ExportTrainingData: 0
    m_TrainingDataDestination: TrainingData
    m_LightProbeSampleCountMultiplier: 4
  m_LightingDataAsset: {fileID: 0}
  m_LightingSettings: {fileID: 0}
--- !u!196 &4
NavMeshSettings:
  serializedVersion: 2
  m_ObjectHideFlags: 0
  m_BuildSettings:
    serializedVersion: 2
    agentTypeID: 0
    agentRadius: 0.5
    agentHeight: 2
    agentSlope: 45
    agentClimb: 0.4
    ledgeDropHeight: 0
    maxJumpAcrossDistance: 0
    minRegionArea: 2
    manualCellSize: 0
    cellSize: 0.16666667
    manualTileSize: 0
    tileSize: 256
    accuratePlacement: 0
    maxJobWorkers: 0
    preserveTilesOutsideBounds: 0
    debug:
      m_Flags: 0
  m_NavMeshData: {fileID: 0}
--- !u!1001 &125298669
PrefabInstance:
  m_ObjectHideFlags: 0
  serializedVersion: 2
  m_Modification:
    m_TransformParent: {fileID: 0}
    m_Modifications:
    - target: {fileID: -8679921383154817045, guid: 31ad62ab8d85f68459c6a9502540fbca, type: 3}
      propertyPath: m_RootOrder
      value: 5
      objectReference: {fileID: 0}
    - target: {fileID: -8679921383154817045, guid: 31ad62ab8d85f68459c6a9502540fbca, type: 3}
      propertyPath: m_LocalPosition.x
      value: 14.273722
      objectReference: {fileID: 0}
    - target: {fileID: -8679921383154817045, guid: 31ad62ab8d85f68459c6a9502540fbca, type: 3}
      propertyPath: m_LocalPosition.y
      value: 4.6312
      objectReference: {fileID: 0}
    - target: {fileID: -8679921383154817045, guid: 31ad62ab8d85f68459c6a9502540fbca, type: 3}
      propertyPath: m_LocalPosition.z
      value: 5.133456
      objectReference: {fileID: 0}
    - target: {fileID: -8679921383154817045, guid: 31ad62ab8d85f68459c6a9502540fbca, type: 3}
      propertyPath: m_LocalRotation.w
      value: 1
      objectReference: {fileID: 0}
    - target: {fileID: -8679921383154817045, guid: 31ad62ab8d85f68459c6a9502540fbca, type: 3}
      propertyPath: m_LocalRotation.x
      value: 0
      objectReference: {fileID: 0}
    - target: {fileID: -8679921383154817045, guid: 31ad62ab8d85f68459c6a9502540fbca, type: 3}
      propertyPath: m_LocalRotation.y
      value: -0
      objectReference: {fileID: 0}
    - target: {fileID: -8679921383154817045, guid: 31ad62ab8d85f68459c6a9502540fbca, type: 3}
      propertyPath: m_LocalRotation.z
      value: -0
      objectReference: {fileID: 0}
    - target: {fileID: -8679921383154817045, guid: 31ad62ab8d85f68459c6a9502540fbca, type: 3}
      propertyPath: m_LocalEulerAnglesHint.x
      value: 0
      objectReference: {fileID: 0}
    - target: {fileID: -8679921383154817045, guid: 31ad62ab8d85f68459c6a9502540fbca, type: 3}
      propertyPath: m_LocalEulerAnglesHint.y
      value: 0
      objectReference: {fileID: 0}
    - target: {fileID: -8679921383154817045, guid: 31ad62ab8d85f68459c6a9502540fbca, type: 3}
      propertyPath: m_LocalEulerAnglesHint.z
      value: 0
      objectReference: {fileID: 0}
    - target: {fileID: -3528924868390877936, guid: 31ad62ab8d85f68459c6a9502540fbca, type: 3}
      propertyPath: m_LocalScale.x
      value: 0.0519
      objectReference: {fileID: 0}
    - target: {fileID: -3528924868390877936, guid: 31ad62ab8d85f68459c6a9502540fbca, type: 3}
      propertyPath: m_LocalScale.y
      value: 0.0757684
      objectReference: {fileID: 0}
    - target: {fileID: -3528924868390877936, guid: 31ad62ab8d85f68459c6a9502540fbca, type: 3}
      propertyPath: m_LocalScale.z
      value: 0.05097771
      objectReference: {fileID: 0}
    - target: {fileID: -3528924868390877936, guid: 31ad62ab8d85f68459c6a9502540fbca, type: 3}
      propertyPath: m_LocalPosition.x
      value: -12.88
      objectReference: {fileID: 0}
    - target: {fileID: -3528924868390877936, guid: 31ad62ab8d85f68459c6a9502540fbca, type: 3}
      propertyPath: m_LocalPosition.y
      value: -2.38
      objectReference: {fileID: 0}
    - target: {fileID: -3528924868390877936, guid: 31ad62ab8d85f68459c6a9502540fbca, type: 3}
      propertyPath: m_LocalPosition.z
      value: -1.12
      objectReference: {fileID: 0}
    - target: {fileID: 919132149155446097, guid: 31ad62ab8d85f68459c6a9502540fbca, type: 3}
      propertyPath: m_Name
      value: eb_house_plant_03
      objectReference: {fileID: 0}
    m_RemovedComponents: []
  m_SourcePrefab: {fileID: 100100000, guid: 31ad62ab8d85f68459c6a9502540fbca, type: 3}
--- !u!1001 &176264162
PrefabInstance:
  m_ObjectHideFlags: 0
  serializedVersion: 2
  m_Modification:
    m_TransformParent: {fileID: 0}
    m_Modifications:
    - target: {fileID: -8679921383154817045, guid: 31ad62ab8d85f68459c6a9502540fbca, type: 3}
      propertyPath: m_RootOrder
      value: 6
      objectReference: {fileID: 0}
    - target: {fileID: -8679921383154817045, guid: 31ad62ab8d85f68459c6a9502540fbca, type: 3}
      propertyPath: m_LocalPosition.x
      value: 27.06
      objectReference: {fileID: 0}
    - target: {fileID: -8679921383154817045, guid: 31ad62ab8d85f68459c6a9502540fbca, type: 3}
      propertyPath: m_LocalPosition.y
      value: 4.6312
      objectReference: {fileID: 0}
    - target: {fileID: -8679921383154817045, guid: 31ad62ab8d85f68459c6a9502540fbca, type: 3}
      propertyPath: m_LocalPosition.z
      value: 9.05
      objectReference: {fileID: 0}
    - target: {fileID: -8679921383154817045, guid: 31ad62ab8d85f68459c6a9502540fbca, type: 3}
      propertyPath: m_LocalRotation.w
      value: 0.92149097
      objectReference: {fileID: 0}
    - target: {fileID: -8679921383154817045, guid: 31ad62ab8d85f68459c6a9502540fbca, type: 3}
      propertyPath: m_LocalRotation.x
      value: -0
      objectReference: {fileID: 0}
    - target: {fileID: -8679921383154817045, guid: 31ad62ab8d85f68459c6a9502540fbca, type: 3}
      propertyPath: m_LocalRotation.y
      value: 0.3884
      objectReference: {fileID: 0}
    - target: {fileID: -8679921383154817045, guid: 31ad62ab8d85f68459c6a9502540fbca, type: 3}
      propertyPath: m_LocalRotation.z
      value: -0
      objectReference: {fileID: 0}
    - target: {fileID: -8679921383154817045, guid: 31ad62ab8d85f68459c6a9502540fbca, type: 3}
      propertyPath: m_LocalEulerAnglesHint.x
      value: 0
      objectReference: {fileID: 0}
    - target: {fileID: -8679921383154817045, guid: 31ad62ab8d85f68459c6a9502540fbca, type: 3}
      propertyPath: m_LocalEulerAnglesHint.y
      value: 45.71
      objectReference: {fileID: 0}
    - target: {fileID: -8679921383154817045, guid: 31ad62ab8d85f68459c6a9502540fbca, type: 3}
      propertyPath: m_LocalEulerAnglesHint.z
      value: 0
      objectReference: {fileID: 0}
    - target: {fileID: -3528924868390877936, guid: 31ad62ab8d85f68459c6a9502540fbca, type: 3}
      propertyPath: m_LocalScale.x
      value: 0.0519
      objectReference: {fileID: 0}
    - target: {fileID: -3528924868390877936, guid: 31ad62ab8d85f68459c6a9502540fbca, type: 3}
      propertyPath: m_LocalScale.y
      value: 0.0757684
      objectReference: {fileID: 0}
    - target: {fileID: -3528924868390877936, guid: 31ad62ab8d85f68459c6a9502540fbca, type: 3}
      propertyPath: m_LocalScale.z
      value: 0.05097771
      objectReference: {fileID: 0}
    - target: {fileID: -3528924868390877936, guid: 31ad62ab8d85f68459c6a9502540fbca, type: 3}
      propertyPath: m_LocalPosition.x
      value: -12.88
      objectReference: {fileID: 0}
    - target: {fileID: -3528924868390877936, guid: 31ad62ab8d85f68459c6a9502540fbca, type: 3}
      propertyPath: m_LocalPosition.y
      value: -2.38
      objectReference: {fileID: 0}
    - target: {fileID: -3528924868390877936, guid: 31ad62ab8d85f68459c6a9502540fbca, type: 3}
      propertyPath: m_LocalPosition.z
      value: -1.12
      objectReference: {fileID: 0}
    - target: {fileID: 919132149155446097, guid: 31ad62ab8d85f68459c6a9502540fbca, type: 3}
      propertyPath: m_Name
      value: eb_house_plant_03 (1)
      objectReference: {fileID: 0}
    m_RemovedComponents: []
  m_SourcePrefab: {fileID: 100100000, guid: 31ad62ab8d85f68459c6a9502540fbca, type: 3}
--- !u!1001 &353687950
PrefabInstance:
  m_ObjectHideFlags: 0
  serializedVersion: 2
  m_Modification:
    m_TransformParent: {fileID: 0}
    m_Modifications:
    - target: {fileID: -8679921383154817045, guid: 0096f66668747b14ca283ca93a7d029c, type: 3}
      propertyPath: m_RootOrder
      value: 2
      objectReference: {fileID: 0}
    - target: {fileID: -8679921383154817045, guid: 0096f66668747b14ca283ca93a7d029c, type: 3}
      propertyPath: m_LocalPosition.x
      value: 8.051424
      objectReference: {fileID: 0}
    - target: {fileID: -8679921383154817045, guid: 0096f66668747b14ca283ca93a7d029c, type: 3}
      propertyPath: m_LocalPosition.y
      value: 2.0999985
      objectReference: {fileID: 0}
    - target: {fileID: -8679921383154817045, guid: 0096f66668747b14ca283ca93a7d029c, type: 3}
      propertyPath: m_LocalPosition.z
      value: 13.25304
      objectReference: {fileID: 0}
    - target: {fileID: -8679921383154817045, guid: 0096f66668747b14ca283ca93a7d029c, type: 3}
      propertyPath: m_LocalRotation.w
      value: 1
      objectReference: {fileID: 0}
    - target: {fileID: -8679921383154817045, guid: 0096f66668747b14ca283ca93a7d029c, type: 3}
      propertyPath: m_LocalRotation.x
      value: 0
      objectReference: {fileID: 0}
    - target: {fileID: -8679921383154817045, guid: 0096f66668747b14ca283ca93a7d029c, type: 3}
      propertyPath: m_LocalRotation.y
      value: 0
      objectReference: {fileID: 0}
    - target: {fileID: -8679921383154817045, guid: 0096f66668747b14ca283ca93a7d029c, type: 3}
      propertyPath: m_LocalRotation.z
      value: 0
      objectReference: {fileID: 0}
    - target: {fileID: -8679921383154817045, guid: 0096f66668747b14ca283ca93a7d029c, type: 3}
      propertyPath: m_LocalEulerAnglesHint.x
      value: 0
      objectReference: {fileID: 0}
    - target: {fileID: -8679921383154817045, guid: 0096f66668747b14ca283ca93a7d029c, type: 3}
      propertyPath: m_LocalEulerAnglesHint.y
      value: 0
      objectReference: {fileID: 0}
    - target: {fileID: -8679921383154817045, guid: 0096f66668747b14ca283ca93a7d029c, type: 3}
      propertyPath: m_LocalEulerAnglesHint.z
      value: 0
      objectReference: {fileID: 0}
    - target: {fileID: -8607157541254533825, guid: 0096f66668747b14ca283ca93a7d029c, type: 3}
      propertyPath: m_LocalScale.x
      value: 252.62282
      objectReference: {fileID: 0}
    - target: {fileID: -8607157541254533825, guid: 0096f66668747b14ca283ca93a7d029c, type: 3}
      propertyPath: m_LocalScale.y
      value: 515.692
      objectReference: {fileID: 0}
    - target: {fileID: -8607157541254533825, guid: 0096f66668747b14ca283ca93a7d029c, type: 3}
      propertyPath: m_LocalScale.z
      value: 169.06
      objectReference: {fileID: 0}
    - target: {fileID: -8607157541254533825, guid: 0096f66668747b14ca283ca93a7d029c, type: 3}
      propertyPath: m_LocalPosition.x
      value: 0.0963
      objectReference: {fileID: 0}
    - target: {fileID: -8607157541254533825, guid: 0096f66668747b14ca283ca93a7d029c, type: 3}
      propertyPath: m_LocalPosition.y
      value: -0.0033
      objectReference: {fileID: 0}
    - target: {fileID: -8607157541254533825, guid: 0096f66668747b14ca283ca93a7d029c, type: 3}
      propertyPath: m_LocalPosition.z
      value: -0.077
      objectReference: {fileID: 0}
    - target: {fileID: 919132149155446097, guid: 0096f66668747b14ca283ca93a7d029c, type: 3}
      propertyPath: m_Name
      value: Wood_Table_74
      objectReference: {fileID: 0}
    - target: {fileID: 9031400570737858226, guid: 0096f66668747b14ca283ca93a7d029c, type: 3}
      propertyPath: m_LocalScale.x
      value: 366.7143
      objectReference: {fileID: 0}
    - target: {fileID: 9031400570737858226, guid: 0096f66668747b14ca283ca93a7d029c, type: 3}
      propertyPath: m_LocalScale.y
      value: 778.0222
      objectReference: {fileID: 0}
    - target: {fileID: 9031400570737858226, guid: 0096f66668747b14ca283ca93a7d029c, type: 3}
      propertyPath: m_LocalPosition.x
      value: 0.0416
      objectReference: {fileID: 0}
    - target: {fileID: 9031400570737858226, guid: 0096f66668747b14ca283ca93a7d029c, type: 3}
      propertyPath: m_LocalPosition.y
      value: 0.27
      objectReference: {fileID: 0}
    - target: {fileID: 9031400570737858226, guid: 0096f66668747b14ca283ca93a7d029c, type: 3}
      propertyPath: m_LocalPosition.z
      value: -0.1174
      objectReference: {fileID: 0}
    m_RemovedComponents: []
  m_SourcePrefab: {fileID: 100100000, guid: 0096f66668747b14ca283ca93a7d029c, type: 3}
--- !u!1001 &601522517
PrefabInstance:
  m_ObjectHideFlags: 0
  serializedVersion: 2
  m_Modification:
    m_TransformParent: {fileID: 0}
    m_Modifications:
    - target: {fileID: -8679921383154817045, guid: 8f2128e6caf4b374b950bd5390809982, type: 3}
      propertyPath: m_RootOrder
      value: 11
      objectReference: {fileID: 0}
    - target: {fileID: -8679921383154817045, guid: 8f2128e6caf4b374b950bd5390809982, type: 3}
      propertyPath: m_LocalPosition.x
      value: -0
      objectReference: {fileID: 0}
    - target: {fileID: -8679921383154817045, guid: 8f2128e6caf4b374b950bd5390809982, type: 3}
      propertyPath: m_LocalPosition.y
      value: 0
      objectReference: {fileID: 0}
    - target: {fileID: -8679921383154817045, guid: 8f2128e6caf4b374b950bd5390809982, type: 3}
      propertyPath: m_LocalPosition.z
      value: 0
      objectReference: {fileID: 0}
    - target: {fileID: -8679921383154817045, guid: 8f2128e6caf4b374b950bd5390809982, type: 3}
      propertyPath: m_LocalRotation.w
      value: 1
      objectReference: {fileID: 0}
    - target: {fileID: -8679921383154817045, guid: 8f2128e6caf4b374b950bd5390809982, type: 3}
      propertyPath: m_LocalRotation.x
      value: 0
      objectReference: {fileID: 0}
    - target: {fileID: -8679921383154817045, guid: 8f2128e6caf4b374b950bd5390809982, type: 3}
      propertyPath: m_LocalRotation.y
      value: -0
      objectReference: {fileID: 0}
    - target: {fileID: -8679921383154817045, guid: 8f2128e6caf4b374b950bd5390809982, type: 3}
      propertyPath: m_LocalRotation.z
      value: -0
      objectReference: {fileID: 0}
    - target: {fileID: -8679921383154817045, guid: 8f2128e6caf4b374b950bd5390809982, type: 3}
      propertyPath: m_LocalEulerAnglesHint.x
      value: 0
      objectReference: {fileID: 0}
    - target: {fileID: -8679921383154817045, guid: 8f2128e6caf4b374b950bd5390809982, type: 3}
      propertyPath: m_LocalEulerAnglesHint.y
      value: 0
      objectReference: {fileID: 0}
    - target: {fileID: -8679921383154817045, guid: 8f2128e6caf4b374b950bd5390809982, type: 3}
      propertyPath: m_LocalEulerAnglesHint.z
      value: 0
      objectReference: {fileID: 0}
    - target: {fileID: -8000372768961025923, guid: 8f2128e6caf4b374b950bd5390809982, type: 3}
      propertyPath: m_Materials.Array.data[0]
      value: 
      objectReference: {fileID: 2100000, guid: d551e397076ada64a9b09c9dcfbd432e, type: 2}
    - target: {fileID: -5951837599861621748, guid: 8f2128e6caf4b374b950bd5390809982, type: 3}
      propertyPath: m_LocalScale.x
      value: 0.0021143632
      objectReference: {fileID: 0}
    - target: {fileID: -5951837599861621748, guid: 8f2128e6caf4b374b950bd5390809982, type: 3}
      propertyPath: m_LocalScale.y
      value: 0.001689721
      objectReference: {fileID: 0}
    - target: {fileID: -5951837599861621748, guid: 8f2128e6caf4b374b950bd5390809982, type: 3}
      propertyPath: m_LocalScale.z
      value: 0.0023612492
      objectReference: {fileID: 0}
    - target: {fileID: -5951837599861621748, guid: 8f2128e6caf4b374b950bd5390809982, type: 3}
      propertyPath: m_LocalPosition.x
      value: 19.32
      objectReference: {fileID: 0}
    - target: {fileID: -5951837599861621748, guid: 8f2128e6caf4b374b950bd5390809982, type: 3}
      propertyPath: m_LocalPosition.y
      value: 3.35
      objectReference: {fileID: 0}
    - target: {fileID: -5951837599861621748, guid: 8f2128e6caf4b374b950bd5390809982, type: 3}
      propertyPath: m_LocalPosition.z
      value: 23.23
      objectReference: {fileID: 0}
    - target: {fileID: -4394461904688275464, guid: 8f2128e6caf4b374b950bd5390809982, type: 3}
      propertyPath: m_LocalScale.x
      value: 0.0036254637
      objectReference: {fileID: 0}
    - target: {fileID: -4394461904688275464, guid: 8f2128e6caf4b374b950bd5390809982, type: 3}
      propertyPath: m_LocalScale.y
      value: 0.0039712014
      objectReference: {fileID: 0}
    - target: {fileID: -4394461904688275464, guid: 8f2128e6caf4b374b950bd5390809982, type: 3}
      propertyPath: m_LocalScale.z
      value: 0.002043343
      objectReference: {fileID: 0}
    - target: {fileID: -4394461904688275464, guid: 8f2128e6caf4b374b950bd5390809982, type: 3}
      propertyPath: m_LocalPosition.x
      value: 19.0825
      objectReference: {fileID: 0}
    - target: {fileID: -4394461904688275464, guid: 8f2128e6caf4b374b950bd5390809982, type: 3}
      propertyPath: m_LocalPosition.y
      value: 2.25
      objectReference: {fileID: 0}
    - target: {fileID: -4394461904688275464, guid: 8f2128e6caf4b374b950bd5390809982, type: 3}
      propertyPath: m_LocalPosition.z
      value: 23.7782
      objectReference: {fileID: 0}
    - target: {fileID: -3275971685701542226, guid: 8f2128e6caf4b374b950bd5390809982, type: 3}
      propertyPath: m_LocalScale.x
      value: 0.0023470682
      objectReference: {fileID: 0}
    - target: {fileID: -3275971685701542226, guid: 8f2128e6caf4b374b950bd5390809982, type: 3}
      propertyPath: m_LocalScale.y
      value: 0.00059334
      objectReference: {fileID: 0}
    - target: {fileID: -3275971685701542226, guid: 8f2128e6caf4b374b950bd5390809982, type: 3}
      propertyPath: m_LocalScale.z
      value: 0.0023869807
      objectReference: {fileID: 0}
    - target: {fileID: -3275971685701542226, guid: 8f2128e6caf4b374b950bd5390809982, type: 3}
      propertyPath: m_LocalPosition.x
      value: 19.665
      objectReference: {fileID: 0}
    - target: {fileID: -3275971685701542226, guid: 8f2128e6caf4b374b950bd5390809982, type: 3}
      propertyPath: m_LocalPosition.y
      value: 3.23
      objectReference: {fileID: 0}
    - target: {fileID: -3275971685701542226, guid: 8f2128e6caf4b374b950bd5390809982, type: 3}
      propertyPath: m_LocalPosition.z
      value: 23.2226
      objectReference: {fileID: 0}
    - target: {fileID: -1661372870390079756, guid: 8f2128e6caf4b374b950bd5390809982, type: 3}
      propertyPath: m_LocalScale.x
      value: 0.0021788662
      objectReference: {fileID: 0}
    - target: {fileID: -1661372870390079756, guid: 8f2128e6caf4b374b950bd5390809982, type: 3}
      propertyPath: m_LocalScale.y
      value: 0.0015879968
      objectReference: {fileID: 0}
    - target: {fileID: -1661372870390079756, guid: 8f2128e6caf4b374b950bd5390809982, type: 3}
      propertyPath: m_LocalScale.z
      value: 0.0022450231
      objectReference: {fileID: 0}
    - target: {fileID: -1661372870390079756, guid: 8f2128e6caf4b374b950bd5390809982, type: 3}
      propertyPath: m_LocalPosition.x
      value: 19.71
      objectReference: {fileID: 0}
    - target: {fileID: -1661372870390079756, guid: 8f2128e6caf4b374b950bd5390809982, type: 3}
      propertyPath: m_LocalPosition.y
      value: 3.07
      objectReference: {fileID: 0}
    - target: {fileID: -1661372870390079756, guid: 8f2128e6caf4b374b950bd5390809982, type: 3}
      propertyPath: m_LocalPosition.z
      value: 23.2108
      objectReference: {fileID: 0}
    - target: {fileID: -1143469564735526731, guid: 8f2128e6caf4b374b950bd5390809982, type: 3}
      propertyPath: m_Materials.Array.data[0]
      value: 
      objectReference: {fileID: 2100000, guid: 44065490d18ef964d9877883f6e17bff, type: 2}
    - target: {fileID: 247094986685811892, guid: 8f2128e6caf4b374b950bd5390809982, type: 3}
      propertyPath: m_LocalScale.x
      value: 0.0025467097
      objectReference: {fileID: 0}
    - target: {fileID: 247094986685811892, guid: 8f2128e6caf4b374b950bd5390809982, type: 3}
      propertyPath: m_LocalScale.y
      value: 0.0029989071
      objectReference: {fileID: 0}
    - target: {fileID: 247094986685811892, guid: 8f2128e6caf4b374b950bd5390809982, type: 3}
      propertyPath: m_LocalScale.z
      value: 0.0031208133
      objectReference: {fileID: 0}
    - target: {fileID: 247094986685811892, guid: 8f2128e6caf4b374b950bd5390809982, type: 3}
      propertyPath: m_LocalPosition.x
      value: 19.42
      objectReference: {fileID: 0}
    - target: {fileID: 247094986685811892, guid: 8f2128e6caf4b374b950bd5390809982, type: 3}
      propertyPath: m_LocalPosition.y
      value: 2.67
      objectReference: {fileID: 0}
    - target: {fileID: 247094986685811892, guid: 8f2128e6caf4b374b950bd5390809982, type: 3}
      propertyPath: m_LocalPosition.z
      value: 22.4424
      objectReference: {fileID: 0}
    - target: {fileID: 919132149155446097, guid: 8f2128e6caf4b374b950bd5390809982, type: 3}
      propertyPath: m_Name
      value: Twelve_Bed
      objectReference: {fileID: 0}
    m_RemovedComponents: []
  m_SourcePrefab: {fileID: 100100000, guid: 8f2128e6caf4b374b950bd5390809982, type: 3}
--- !u!1001 &1101588233
PrefabInstance:
  m_ObjectHideFlags: 0
  serializedVersion: 2
  m_Modification:
    m_TransformParent: {fileID: 0}
    m_Modifications:
    - target: {fileID: -8679921383154817045, guid: fb8cd6cd3d601484fa1360a733d688cb, type: 3}
      propertyPath: m_RootOrder
      value: 10
      objectReference: {fileID: 0}
    - target: {fileID: -8679921383154817045, guid: fb8cd6cd3d601484fa1360a733d688cb, type: 3}
      propertyPath: m_LocalScale.y
      value: 3.6576216
      objectReference: {fileID: 0}
    - target: {fileID: -8679921383154817045, guid: fb8cd6cd3d601484fa1360a733d688cb, type: 3}
      propertyPath: m_LocalScale.z
      value: 3.3166769
      objectReference: {fileID: 0}
    - target: {fileID: -8679921383154817045, guid: fb8cd6cd3d601484fa1360a733d688cb, type: 3}
      propertyPath: m_LocalPosition.x
      value: 7.73
      objectReference: {fileID: 0}
    - target: {fileID: -8679921383154817045, guid: fb8cd6cd3d601484fa1360a733d688cb, type: 3}
      propertyPath: m_LocalPosition.y
      value: 5.09
      objectReference: {fileID: 0}
    - target: {fileID: -8679921383154817045, guid: fb8cd6cd3d601484fa1360a733d688cb, type: 3}
      propertyPath: m_LocalPosition.z
      value: 26.04
      objectReference: {fileID: 0}
    - target: {fileID: -8679921383154817045, guid: fb8cd6cd3d601484fa1360a733d688cb, type: 3}
      propertyPath: m_LocalRotation.w
      value: 0.51892525
      objectReference: {fileID: 0}
    - target: {fileID: -8679921383154817045, guid: fb8cd6cd3d601484fa1360a733d688cb, type: 3}
      propertyPath: m_LocalRotation.x
      value: -0.5189254
      objectReference: {fileID: 0}
    - target: {fileID: -8679921383154817045, guid: fb8cd6cd3d601484fa1360a733d688cb, type: 3}
      propertyPath: m_LocalRotation.y
      value: 0.48032966
      objectReference: {fileID: 0}
    - target: {fileID: -8679921383154817045, guid: fb8cd6cd3d601484fa1360a733d688cb, type: 3}
      propertyPath: m_LocalRotation.z
      value: 0.4803295
      objectReference: {fileID: 0}
    - target: {fileID: -8679921383154817045, guid: fb8cd6cd3d601484fa1360a733d688cb, type: 3}
      propertyPath: m_LocalEulerAnglesHint.x
      value: -90
      objectReference: {fileID: 0}
    - target: {fileID: -8679921383154817045, guid: fb8cd6cd3d601484fa1360a733d688cb, type: 3}
      propertyPath: m_LocalEulerAnglesHint.y
      value: 0
      objectReference: {fileID: 0}
    - target: {fileID: -8679921383154817045, guid: fb8cd6cd3d601484fa1360a733d688cb, type: 3}
      propertyPath: m_LocalEulerAnglesHint.z
      value: 85.576
      objectReference: {fileID: 0}
    - target: {fileID: -7511558181221131132, guid: fb8cd6cd3d601484fa1360a733d688cb, type: 3}
      propertyPath: m_Materials.Array.data[0]
      value: 
      objectReference: {fileID: 2100000, guid: a40519a54498dac499724247ddd579f4, type: 2}
    - target: {fileID: 919132149155446097, guid: fb8cd6cd3d601484fa1360a733d688cb, type: 3}
      propertyPath: m_Name
      value: window (1)
      objectReference: {fileID: 0}
    m_RemovedComponents: []
  m_SourcePrefab: {fileID: 100100000, guid: fb8cd6cd3d601484fa1360a733d688cb, type: 3}
--- !u!1001 &1132801922
PrefabInstance:
  m_ObjectHideFlags: 0
  serializedVersion: 2
  m_Modification:
    m_TransformParent: {fileID: 0}
    m_Modifications:
    - target: {fileID: -8679921383154817045, guid: 50c0995d2ae446c47b7e953636fee0f0, type: 3}
      propertyPath: m_RootOrder
      value: 8
      objectReference: {fileID: 0}
    - target: {fileID: -8679921383154817045, guid: 50c0995d2ae446c47b7e953636fee0f0, type: 3}
      propertyPath: m_LocalPosition.x
      value: 16.747433
      objectReference: {fileID: 0}
    - target: {fileID: -8679921383154817045, guid: 50c0995d2ae446c47b7e953636fee0f0, type: 3}
      propertyPath: m_LocalPosition.y
      value: 2.3991642
      objectReference: {fileID: 0}
    - target: {fileID: -8679921383154817045, guid: 50c0995d2ae446c47b7e953636fee0f0, type: 3}
      propertyPath: m_LocalPosition.z
      value: 2.1431332
      objectReference: {fileID: 0}
    - target: {fileID: -8679921383154817045, guid: 50c0995d2ae446c47b7e953636fee0f0, type: 3}
      propertyPath: m_LocalRotation.w
      value: 1
      objectReference: {fileID: 0}
    - target: {fileID: -8679921383154817045, guid: 50c0995d2ae446c47b7e953636fee0f0, type: 3}
      propertyPath: m_LocalRotation.x
      value: 0
      objectReference: {fileID: 0}
    - target: {fileID: -8679921383154817045, guid: 50c0995d2ae446c47b7e953636fee0f0, type: 3}
      propertyPath: m_LocalRotation.y
      value: -0
      objectReference: {fileID: 0}
    - target: {fileID: -8679921383154817045, guid: 50c0995d2ae446c47b7e953636fee0f0, type: 3}
      propertyPath: m_LocalRotation.z
      value: -0
      objectReference: {fileID: 0}
    - target: {fileID: -8679921383154817045, guid: 50c0995d2ae446c47b7e953636fee0f0, type: 3}
      propertyPath: m_LocalEulerAnglesHint.x
      value: 0
      objectReference: {fileID: 0}
    - target: {fileID: -8679921383154817045, guid: 50c0995d2ae446c47b7e953636fee0f0, type: 3}
      propertyPath: m_LocalEulerAnglesHint.y
      value: 0
      objectReference: {fileID: 0}
    - target: {fileID: -8679921383154817045, guid: 50c0995d2ae446c47b7e953636fee0f0, type: 3}
      propertyPath: m_LocalEulerAnglesHint.z
      value: 0
      objectReference: {fileID: 0}
    - target: {fileID: -7202464317774104332, guid: 50c0995d2ae446c47b7e953636fee0f0, type: 3}
      propertyPath: m_Materials.Array.data[0]
      value: 
      objectReference: {fileID: 2100000, guid: 7f77662945193ba4d93e123c83c111ff, type: 2}
    - target: {fileID: -2153021409551774732, guid: 50c0995d2ae446c47b7e953636fee0f0, type: 3}
      propertyPath: m_LocalScale.x
      value: 0.03641409
      objectReference: {fileID: 0}
    - target: {fileID: -2153021409551774732, guid: 50c0995d2ae446c47b7e953636fee0f0, type: 3}
      propertyPath: m_LocalScale.y
      value: 0.00231813
      objectReference: {fileID: 0}
    - target: {fileID: -2153021409551774732, guid: 50c0995d2ae446c47b7e953636fee0f0, type: 3}
      propertyPath: m_LocalScale.z
      value: 0.26508343
      objectReference: {fileID: 0}
    - target: {fileID: -2153021409551774732, guid: 50c0995d2ae446c47b7e953636fee0f0, type: 3}
      propertyPath: m_LocalPosition.x
      value: 3.5182
      objectReference: {fileID: 0}
    - target: {fileID: -2153021409551774732, guid: 50c0995d2ae446c47b7e953636fee0f0, type: 3}
      propertyPath: m_LocalPosition.y
      value: 3.4208
      objectReference: {fileID: 0}
    - target: {fileID: -2153021409551774732, guid: 50c0995d2ae446c47b7e953636fee0f0, type: 3}
      propertyPath: m_LocalPosition.z
      value: 0.277
      objectReference: {fileID: 0}
    - target: {fileID: -2153021409551774732, guid: 50c0995d2ae446c47b7e953636fee0f0, type: 3}
      propertyPath: m_LocalRotation.w
      value: 0.56605166
      objectReference: {fileID: 0}
    - target: {fileID: -2153021409551774732, guid: 50c0995d2ae446c47b7e953636fee0f0, type: 3}
      propertyPath: m_LocalRotation.x
      value: 0.43426108
      objectReference: {fileID: 0}
    - target: {fileID: -2153021409551774732, guid: 50c0995d2ae446c47b7e953636fee0f0, type: 3}
      propertyPath: m_LocalRotation.y
      value: -0.555956
      objectReference: {fileID: 0}
    - target: {fileID: -2153021409551774732, guid: 50c0995d2ae446c47b7e953636fee0f0, type: 3}
      propertyPath: m_LocalRotation.z
      value: 0.42651594
      objectReference: {fileID: 0}
    - target: {fileID: -2153021409551774732, guid: 50c0995d2ae446c47b7e953636fee0f0, type: 3}
      propertyPath: m_LocalEulerAnglesHint.x
      value: 74.989
      objectReference: {fileID: 0}
    - target: {fileID: -2153021409551774732, guid: 50c0995d2ae446c47b7e953636fee0f0, type: 3}
      propertyPath: m_LocalEulerAnglesHint.y
      value: -88.969
      objectReference: {fileID: 0}
    - target: {fileID: 312242627386704383, guid: 50c0995d2ae446c47b7e953636fee0f0, type: 3}
      propertyPath: m_LocalScale.x
      value: 0.03812701
      objectReference: {fileID: 0}
    - target: {fileID: 312242627386704383, guid: 50c0995d2ae446c47b7e953636fee0f0, type: 3}
      propertyPath: m_LocalScale.y
      value: 0.040564165
      objectReference: {fileID: 0}
    - target: {fileID: 312242627386704383, guid: 50c0995d2ae446c47b7e953636fee0f0, type: 3}
      propertyPath: m_LocalScale.z
      value: 0.038071092
      objectReference: {fileID: 0}
    - target: {fileID: 312242627386704383, guid: 50c0995d2ae446c47b7e953636fee0f0, type: 3}
      propertyPath: m_LocalPosition.x
      value: 3.4
      objectReference: {fileID: 0}
    - target: {fileID: 312242627386704383, guid: 50c0995d2ae446c47b7e953636fee0f0, type: 3}
      propertyPath: m_LocalPosition.y
      value: 0.59
      objectReference: {fileID: 0}
    - target: {fileID: 312242627386704383, guid: 50c0995d2ae446c47b7e953636fee0f0, type: 3}
      propertyPath: m_LocalPosition.z
      value: 0.28
      objectReference: {fileID: 0}
    - target: {fileID: 312242627386704383, guid: 50c0995d2ae446c47b7e953636fee0f0, type: 3}
      propertyPath: m_LocalRotation.w
      value: 0.7122533
      objectReference: {fileID: 0}
    - target: {fileID: 312242627386704383, guid: 50c0995d2ae446c47b7e953636fee0f0, type: 3}
      propertyPath: m_LocalRotation.x
      value: -0
      objectReference: {fileID: 0}
    - target: {fileID: 312242627386704383, guid: 50c0995d2ae446c47b7e953636fee0f0, type: 3}
      propertyPath: m_LocalRotation.y
      value: 0.70192254
      objectReference: {fileID: 0}
    - target: {fileID: 312242627386704383, guid: 50c0995d2ae446c47b7e953636fee0f0, type: 3}
      propertyPath: m_LocalEulerAnglesHint.y
      value: 89.163
      objectReference: {fileID: 0}
    - target: {fileID: 919132149155446097, guid: 50c0995d2ae446c47b7e953636fee0f0, type: 3}
      propertyPath: m_Name
      value: MirrorOBJ
      objectReference: {fileID: 0}
    - target: {fileID: 7142933970241471619, guid: 50c0995d2ae446c47b7e953636fee0f0, type: 3}
      propertyPath: m_LocalScale.x
      value: 0.03521904
      objectReference: {fileID: 0}
    - target: {fileID: 7142933970241471619, guid: 50c0995d2ae446c47b7e953636fee0f0, type: 3}
      propertyPath: m_LocalScale.y
      value: 0.023850657
      objectReference: {fileID: 0}
    - target: {fileID: 7142933970241471619, guid: 50c0995d2ae446c47b7e953636fee0f0, type: 3}
      propertyPath: m_LocalScale.z
      value: 0.041557863
      objectReference: {fileID: 0}
    - target: {fileID: 7142933970241471619, guid: 50c0995d2ae446c47b7e953636fee0f0, type: 3}
      propertyPath: m_LocalPosition.x
      value: 3.27
      objectReference: {fileID: 0}
    - target: {fileID: 7142933970241471619, guid: 50c0995d2ae446c47b7e953636fee0f0, type: 3}
      propertyPath: m_LocalPosition.y
      value: 1.1398
      objectReference: {fileID: 0}
    - target: {fileID: 7142933970241471619, guid: 50c0995d2ae446c47b7e953636fee0f0, type: 3}
      propertyPath: m_LocalPosition.z
      value: 0.2623
      objectReference: {fileID: 0}
    - target: {fileID: 7142933970241471619, guid: 50c0995d2ae446c47b7e953636fee0f0, type: 3}
      propertyPath: m_LocalRotation.w
      value: 0.7070722
      objectReference: {fileID: 0}
    - target: {fileID: 7142933970241471619, guid: 50c0995d2ae446c47b7e953636fee0f0, type: 3}
      propertyPath: m_LocalRotation.x
      value: -0
      objectReference: {fileID: 0}
    - target: {fileID: 7142933970241471619, guid: 50c0995d2ae446c47b7e953636fee0f0, type: 3}
      propertyPath: m_LocalRotation.y
      value: -0.70714146
      objectReference: {fileID: 0}
    - target: {fileID: 7142933970241471619, guid: 50c0995d2ae446c47b7e953636fee0f0, type: 3}
      propertyPath: m_LocalEulerAnglesHint.y
      value: -90.006
      objectReference: {fileID: 0}
    m_RemovedComponents: []
  m_SourcePrefab: {fileID: 100100000, guid: 50c0995d2ae446c47b7e953636fee0f0, type: 3}
--- !u!1001 &1167964752
PrefabInstance:
  m_ObjectHideFlags: 0
  serializedVersion: 2
  m_Modification:
    m_TransformParent: {fileID: 0}
    m_Modifications:
    - target: {fileID: -8679921383154817045, guid: e94b6d3fcedb3be40897f459a78e8a97, type: 3}
      propertyPath: m_RootOrder
      value: 9
      objectReference: {fileID: 0}
    - target: {fileID: -8679921383154817045, guid: e94b6d3fcedb3be40897f459a78e8a97, type: 3}
      propertyPath: m_LocalPosition.x
      value: 10.240601
      objectReference: {fileID: 0}
    - target: {fileID: -8679921383154817045, guid: e94b6d3fcedb3be40897f459a78e8a97, type: 3}
      propertyPath: m_LocalPosition.y
      value: 2.0999947
      objectReference: {fileID: 0}
    - target: {fileID: -8679921383154817045, guid: e94b6d3fcedb3be40897f459a78e8a97, type: 3}
      propertyPath: m_LocalPosition.z
      value: 9.46297
      objectReference: {fileID: 0}
    - target: {fileID: -8679921383154817045, guid: e94b6d3fcedb3be40897f459a78e8a97, type: 3}
      propertyPath: m_LocalRotation.w
      value: 1
      objectReference: {fileID: 0}
    - target: {fileID: -8679921383154817045, guid: e94b6d3fcedb3be40897f459a78e8a97, type: 3}
      propertyPath: m_LocalRotation.x
      value: 0
      objectReference: {fileID: 0}
    - target: {fileID: -8679921383154817045, guid: e94b6d3fcedb3be40897f459a78e8a97, type: 3}
      propertyPath: m_LocalRotation.y
      value: -0
      objectReference: {fileID: 0}
    - target: {fileID: -8679921383154817045, guid: e94b6d3fcedb3be40897f459a78e8a97, type: 3}
      propertyPath: m_LocalRotation.z
      value: -0
      objectReference: {fileID: 0}
    - target: {fileID: -8679921383154817045, guid: e94b6d3fcedb3be40897f459a78e8a97, type: 3}
      propertyPath: m_LocalEulerAnglesHint.x
      value: 0
      objectReference: {fileID: 0}
    - target: {fileID: -8679921383154817045, guid: e94b6d3fcedb3be40897f459a78e8a97, type: 3}
      propertyPath: m_LocalEulerAnglesHint.y
      value: 0
      objectReference: {fileID: 0}
    - target: {fileID: -8679921383154817045, guid: e94b6d3fcedb3be40897f459a78e8a97, type: 3}
      propertyPath: m_LocalEulerAnglesHint.z
      value: 0
      objectReference: {fileID: 0}
    - target: {fileID: -1767379887010148231, guid: e94b6d3fcedb3be40897f459a78e8a97, type: 3}
      propertyPath: m_Materials.Array.data[0]
      value: 
      objectReference: {fileID: 2100000, guid: 2a387ee626a7f854699ac09312cfd257, type: 2}
    - target: {fileID: 919132149155446097, guid: e94b6d3fcedb3be40897f459a78e8a97, type: 3}
      propertyPath: m_Name
      value: cranberry_doormat
      objectReference: {fileID: 0}
    - target: {fileID: 6640890668045380712, guid: e94b6d3fcedb3be40897f459a78e8a97, type: 3}
      propertyPath: m_LocalScale.x
      value: 0.0298
      objectReference: {fileID: 0}
    - target: {fileID: 6640890668045380712, guid: e94b6d3fcedb3be40897f459a78e8a97, type: 3}
      propertyPath: m_LocalScale.y
      value: 0.0604
      objectReference: {fileID: 0}
    - target: {fileID: 6640890668045380712, guid: e94b6d3fcedb3be40897f459a78e8a97, type: 3}
      propertyPath: m_LocalScale.z
      value: 0.0539968
      objectReference: {fileID: 0}
    - target: {fileID: 6640890668045380712, guid: e94b6d3fcedb3be40897f459a78e8a97, type: 3}
      propertyPath: m_LocalPosition.x
      value: -4.92
      objectReference: {fileID: 0}
    - target: {fileID: 6640890668045380712, guid: e94b6d3fcedb3be40897f459a78e8a97, type: 3}
      propertyPath: m_LocalPosition.y
      value: 0.26
      objectReference: {fileID: 0}
    - target: {fileID: 6640890668045380712, guid: e94b6d3fcedb3be40897f459a78e8a97, type: 3}
      propertyPath: m_LocalPosition.z
      value: -6.91
      objectReference: {fileID: 0}
    m_RemovedComponents: []
  m_SourcePrefab: {fileID: 100100000, guid: e94b6d3fcedb3be40897f459a78e8a97, type: 3}
--- !u!1001 &1413021797
PrefabInstance:
  m_ObjectHideFlags: 0
  serializedVersion: 2
  m_Modification:
    m_TransformParent: {fileID: 0}
    m_Modifications:
    - target: {fileID: -8679921383154817045, guid: e94b6d3fcedb3be40897f459a78e8a97, type: 3}
      propertyPath: m_RootOrder
      value: 7
      objectReference: {fileID: 0}
    - target: {fileID: -8679921383154817045, guid: e94b6d3fcedb3be40897f459a78e8a97, type: 3}
      propertyPath: m_LocalPosition.x
      value: 16.71
      objectReference: {fileID: 0}
    - target: {fileID: -8679921383154817045, guid: e94b6d3fcedb3be40897f459a78e8a97, type: 3}
      propertyPath: m_LocalPosition.y
      value: 2.0999947
      objectReference: {fileID: 0}
    - target: {fileID: -8679921383154817045, guid: e94b6d3fcedb3be40897f459a78e8a97, type: 3}
      propertyPath: m_LocalPosition.z
      value: 20.24
      objectReference: {fileID: 0}
    - target: {fileID: -8679921383154817045, guid: e94b6d3fcedb3be40897f459a78e8a97, type: 3}
      propertyPath: m_LocalRotation.w
      value: 1
      objectReference: {fileID: 0}
    - target: {fileID: -8679921383154817045, guid: e94b6d3fcedb3be40897f459a78e8a97, type: 3}
      propertyPath: m_LocalRotation.x
      value: 0
      objectReference: {fileID: 0}
    - target: {fileID: -8679921383154817045, guid: e94b6d3fcedb3be40897f459a78e8a97, type: 3}
      propertyPath: m_LocalRotation.y
      value: -0
      objectReference: {fileID: 0}
    - target: {fileID: -8679921383154817045, guid: e94b6d3fcedb3be40897f459a78e8a97, type: 3}
      propertyPath: m_LocalRotation.z
      value: -0
      objectReference: {fileID: 0}
    - target: {fileID: -8679921383154817045, guid: e94b6d3fcedb3be40897f459a78e8a97, type: 3}
      propertyPath: m_LocalEulerAnglesHint.x
      value: 0
      objectReference: {fileID: 0}
    - target: {fileID: -8679921383154817045, guid: e94b6d3fcedb3be40897f459a78e8a97, type: 3}
      propertyPath: m_LocalEulerAnglesHint.y
      value: 0
      objectReference: {fileID: 0}
    - target: {fileID: -8679921383154817045, guid: e94b6d3fcedb3be40897f459a78e8a97, type: 3}
      propertyPath: m_LocalEulerAnglesHint.z
      value: 0
      objectReference: {fileID: 0}
    - target: {fileID: -1767379887010148231, guid: e94b6d3fcedb3be40897f459a78e8a97, type: 3}
      propertyPath: m_Materials.Array.data[0]
      value: 
      objectReference: {fileID: 2100000, guid: 2a387ee626a7f854699ac09312cfd257, type: 2}
    - target: {fileID: 919132149155446097, guid: e94b6d3fcedb3be40897f459a78e8a97, type: 3}
      propertyPath: m_Name
      value: cranberry_doormat (1)
      objectReference: {fileID: 0}
    - target: {fileID: 6640890668045380712, guid: e94b6d3fcedb3be40897f459a78e8a97, type: 3}
      propertyPath: m_LocalScale.x
      value: 0.07099084
      objectReference: {fileID: 0}
    - target: {fileID: 6640890668045380712, guid: e94b6d3fcedb3be40897f459a78e8a97, type: 3}
      propertyPath: m_LocalScale.y
      value: 0.0604
      objectReference: {fileID: 0}
    - target: {fileID: 6640890668045380712, guid: e94b6d3fcedb3be40897f459a78e8a97, type: 3}
      propertyPath: m_LocalScale.z
      value: 0.14747496
      objectReference: {fileID: 0}
    - target: {fileID: 6640890668045380712, guid: e94b6d3fcedb3be40897f459a78e8a97, type: 3}
      propertyPath: m_LocalPosition.x
      value: -9.04
      objectReference: {fileID: 0}
    - target: {fileID: 6640890668045380712, guid: e94b6d3fcedb3be40897f459a78e8a97, type: 3}
      propertyPath: m_LocalPosition.y
      value: 0.26
      objectReference: {fileID: 0}
    - target: {fileID: 6640890668045380712, guid: e94b6d3fcedb3be40897f459a78e8a97, type: 3}
      propertyPath: m_LocalPosition.z
      value: -7.1636
      objectReference: {fileID: 0}
    m_RemovedComponents: []
  m_SourcePrefab: {fileID: 100100000, guid: e94b6d3fcedb3be40897f459a78e8a97, type: 3}
--- !u!1001 &1442490049
PrefabInstance:
  m_ObjectHideFlags: 0
  serializedVersion: 2
  m_Modification:
    m_TransformParent: {fileID: 0}
    m_Modifications:
    - target: {fileID: -8679921383154817045, guid: a93605bf8b83b174388ed5f5ef3ae300, type: 3}
      propertyPath: m_RootOrder
      value: 1
      objectReference: {fileID: 0}
    - target: {fileID: -8679921383154817045, guid: a93605bf8b83b174388ed5f5ef3ae300, type: 3}
      propertyPath: m_LocalPosition.x
      value: 10.72
      objectReference: {fileID: 0}
    - target: {fileID: -8679921383154817045, guid: a93605bf8b83b174388ed5f5ef3ae300, type: 3}
      propertyPath: m_LocalPosition.y
      value: 2.0999985
      objectReference: {fileID: 0}
    - target: {fileID: -8679921383154817045, guid: a93605bf8b83b174388ed5f5ef3ae300, type: 3}
      propertyPath: m_LocalPosition.z
      value: 13.84
      objectReference: {fileID: 0}
    - target: {fileID: -8679921383154817045, guid: a93605bf8b83b174388ed5f5ef3ae300, type: 3}
      propertyPath: m_LocalRotation.w
      value: 1
      objectReference: {fileID: 0}
    - target: {fileID: -8679921383154817045, guid: a93605bf8b83b174388ed5f5ef3ae300, type: 3}
      propertyPath: m_LocalRotation.x
      value: 0
      objectReference: {fileID: 0}
    - target: {fileID: -8679921383154817045, guid: a93605bf8b83b174388ed5f5ef3ae300, type: 3}
      propertyPath: m_LocalRotation.y
      value: -0
      objectReference: {fileID: 0}
    - target: {fileID: -8679921383154817045, guid: a93605bf8b83b174388ed5f5ef3ae300, type: 3}
      propertyPath: m_LocalRotation.z
      value: -0
      objectReference: {fileID: 0}
    - target: {fileID: -8679921383154817045, guid: a93605bf8b83b174388ed5f5ef3ae300, type: 3}
      propertyPath: m_LocalEulerAnglesHint.x
      value: 0
      objectReference: {fileID: 0}
    - target: {fileID: -8679921383154817045, guid: a93605bf8b83b174388ed5f5ef3ae300, type: 3}
      propertyPath: m_LocalEulerAnglesHint.y
      value: 0
      objectReference: {fileID: 0}
    - target: {fileID: -8679921383154817045, guid: a93605bf8b83b174388ed5f5ef3ae300, type: 3}
      propertyPath: m_LocalEulerAnglesHint.z
      value: 0
      objectReference: {fileID: 0}
    - target: {fileID: -7635826562936255635, guid: a93605bf8b83b174388ed5f5ef3ae300, type: 3}
      propertyPath: m_Materials.Array.data[0]
      value: 
      objectReference: {fileID: 2100000, guid: 6efef7c02466e60469435803241a6f38, type: 2}
    - target: {fileID: 919132149155446097, guid: a93605bf8b83b174388ed5f5ef3ae300, type: 3}
      propertyPath: m_Name
      value: Koltuk
      objectReference: {fileID: 0}
    - target: {fileID: 1151388028547126963, guid: a93605bf8b83b174388ed5f5ef3ae300, type: 3}
      propertyPath: m_LocalScale.x
      value: 1.958096
      objectReference: {fileID: 0}
    - target: {fileID: 1151388028547126963, guid: a93605bf8b83b174388ed5f5ef3ae300, type: 3}
      propertyPath: m_LocalScale.y
      value: 1.9348
      objectReference: {fileID: 0}
    - target: {fileID: 1151388028547126963, guid: a93605bf8b83b174388ed5f5ef3ae300, type: 3}
      propertyPath: m_LocalScale.z
      value: 2.136968
      objectReference: {fileID: 0}
    - target: {fileID: 1151388028547126963, guid: a93605bf8b83b174388ed5f5ef3ae300, type: 3}
      propertyPath: m_LocalPosition.x
      value: -5.4529
      objectReference: {fileID: 0}
    - target: {fileID: 1151388028547126963, guid: a93605bf8b83b174388ed5f5ef3ae300, type: 3}
      propertyPath: m_LocalPosition.y
      value: 0.3
      objectReference: {fileID: 0}
    - target: {fileID: 1151388028547126963, guid: a93605bf8b83b174388ed5f5ef3ae300, type: 3}
      propertyPath: m_LocalPosition.z
      value: -0.9054
      objectReference: {fileID: 0}
    - target: {fileID: 1151388028547126963, guid: a93605bf8b83b174388ed5f5ef3ae300, type: 3}
      propertyPath: m_LocalRotation.w
      value: 0.7015549
      objectReference: {fileID: 0}
    - target: {fileID: 1151388028547126963, guid: a93605bf8b83b174388ed5f5ef3ae300, type: 3}
      propertyPath: m_LocalRotation.x
      value: -0
      objectReference: {fileID: 0}
    - target: {fileID: 1151388028547126963, guid: a93605bf8b83b174388ed5f5ef3ae300, type: 3}
      propertyPath: m_LocalRotation.y
      value: 0.7126155
      objectReference: {fileID: 0}
    - target: {fileID: 1151388028547126963, guid: a93605bf8b83b174388ed5f5ef3ae300, type: 3}
      propertyPath: m_LocalEulerAnglesHint.y
      value: 90.896
      objectReference: {fileID: 0}
    m_RemovedComponents: []
  m_SourcePrefab: {fileID: 100100000, guid: a93605bf8b83b174388ed5f5ef3ae300, type: 3}
--- !u!1001 &1497084730
PrefabInstance:
  m_ObjectHideFlags: 0
  serializedVersion: 2
  m_Modification:
    m_TransformParent: {fileID: 0}
    m_Modifications:
    - target: {fileID: -8679921383154817045, guid: c614d35e78044a64f8dce11e5f2226b8, type: 3}
      propertyPath: m_RootOrder
      value: 4
      objectReference: {fileID: 0}
    - target: {fileID: -8679921383154817045, guid: c614d35e78044a64f8dce11e5f2226b8, type: 3}
      propertyPath: m_LocalPosition.x
      value: 2.03
      objectReference: {fileID: 0}
    - target: {fileID: -8679921383154817045, guid: c614d35e78044a64f8dce11e5f2226b8, type: 3}
      propertyPath: m_LocalPosition.y
      value: -4.79
      objectReference: {fileID: 0}
    - target: {fileID: -8679921383154817045, guid: c614d35e78044a64f8dce11e5f2226b8, type: 3}
      propertyPath: m_LocalPosition.z
      value: 0.21974373
      objectReference: {fileID: 0}
    - target: {fileID: -8679921383154817045, guid: c614d35e78044a64f8dce11e5f2226b8, type: 3}
      propertyPath: m_LocalRotation.w
      value: 1
      objectReference: {fileID: 0}
    - target: {fileID: -8679921383154817045, guid: c614d35e78044a64f8dce11e5f2226b8, type: 3}
      propertyPath: m_LocalRotation.x
      value: 0
      objectReference: {fileID: 0}
    - target: {fileID: -8679921383154817045, guid: c614d35e78044a64f8dce11e5f2226b8, type: 3}
      propertyPath: m_LocalRotation.y
      value: -0
      objectReference: {fileID: 0}
    - target: {fileID: -8679921383154817045, guid: c614d35e78044a64f8dce11e5f2226b8, type: 3}
      propertyPath: m_LocalRotation.z
      value: -0
      objectReference: {fileID: 0}
    - target: {fileID: -8679921383154817045, guid: c614d35e78044a64f8dce11e5f2226b8, type: 3}
      propertyPath: m_LocalEulerAnglesHint.x
      value: 0
      objectReference: {fileID: 0}
    - target: {fileID: -8679921383154817045, guid: c614d35e78044a64f8dce11e5f2226b8, type: 3}
      propertyPath: m_LocalEulerAnglesHint.y
      value: 0
      objectReference: {fileID: 0}
    - target: {fileID: -8679921383154817045, guid: c614d35e78044a64f8dce11e5f2226b8, type: 3}
      propertyPath: m_LocalEulerAnglesHint.z
      value: 0
      objectReference: {fileID: 0}
    - target: {fileID: -7635826562936255635, guid: c614d35e78044a64f8dce11e5f2226b8, type: 3}
      propertyPath: m_Materials.Array.data[0]
      value: 
      objectReference: {fileID: 2100000, guid: 1ded3f6d8a680a84c8505740822ccbce, type: 2}
    - target: {fileID: 919132149155446097, guid: c614d35e78044a64f8dce11e5f2226b8, type: 3}
      propertyPath: m_Name
      value: Modern Post Box_OBJ
      objectReference: {fileID: 0}
    - target: {fileID: 1151388028547126963, guid: c614d35e78044a64f8dce11e5f2226b8, type: 3}
      propertyPath: m_LocalScale.x
      value: 0.016140256
      objectReference: {fileID: 0}
    - target: {fileID: 1151388028547126963, guid: c614d35e78044a64f8dce11e5f2226b8, type: 3}
      propertyPath: m_LocalScale.y
      value: 0.017361993
      objectReference: {fileID: 0}
    - target: {fileID: 1151388028547126963, guid: c614d35e78044a64f8dce11e5f2226b8, type: 3}
      propertyPath: m_LocalScale.z
      value: 0.056794804
      objectReference: {fileID: 0}
    - target: {fileID: 1151388028547126963, guid: c614d35e78044a64f8dce11e5f2226b8, type: 3}
      propertyPath: m_LocalPosition.x
      value: 1.36
      objectReference: {fileID: 0}
    - target: {fileID: 1151388028547126963, guid: c614d35e78044a64f8dce11e5f2226b8, type: 3}
      propertyPath: m_LocalPosition.y
      value: 6.63
      objectReference: {fileID: 0}
    - target: {fileID: 1151388028547126963, guid: c614d35e78044a64f8dce11e5f2226b8, type: 3}
      propertyPath: m_LocalPosition.z
      value: 6.37
      objectReference: {fileID: 0}
    - target: {fileID: 1151388028547126963, guid: c614d35e78044a64f8dce11e5f2226b8, type: 3}
      propertyPath: m_LocalRotation.w
      value: 0.7125085
      objectReference: {fileID: 0}
    - target: {fileID: 1151388028547126963, guid: c614d35e78044a64f8dce11e5f2226b8, type: 3}
      propertyPath: m_LocalRotation.x
      value: -0
      objectReference: {fileID: 0}
    - target: {fileID: 1151388028547126963, guid: c614d35e78044a64f8dce11e5f2226b8, type: 3}
      propertyPath: m_LocalRotation.y
      value: 0.7016635
      objectReference: {fileID: 0}
    - target: {fileID: 1151388028547126963, guid: c614d35e78044a64f8dce11e5f2226b8, type: 3}
      propertyPath: m_LocalEulerAnglesHint.y
      value: 89.121
      objectReference: {fileID: 0}
    m_RemovedComponents: []
  m_SourcePrefab: {fileID: 100100000, guid: c614d35e78044a64f8dce11e5f2226b8, type: 3}
--- !u!1001 &1767881260
PrefabInstance:
  m_ObjectHideFlags: 0
  serializedVersion: 2
  m_Modification:
    m_TransformParent: {fileID: 0}
    m_Modifications:
    - target: {fileID: -8679921383154817045, guid: 85b09f6a199863046815fe70a0de7c80, type: 3}
      propertyPath: m_RootOrder
      value: 13
      objectReference: {fileID: 0}
    - target: {fileID: -8679921383154817045, guid: 85b09f6a199863046815fe70a0de7c80, type: 3}
      propertyPath: m_LocalPosition.x
      value: 7.647211
      objectReference: {fileID: 0}
    - target: {fileID: -8679921383154817045, guid: 85b09f6a199863046815fe70a0de7c80, type: 3}
      propertyPath: m_LocalPosition.y
      value: 10
      objectReference: {fileID: 0}
    - target: {fileID: -8679921383154817045, guid: 85b09f6a199863046815fe70a0de7c80, type: 3}
      propertyPath: m_LocalPosition.z
      value: 8.172912
      objectReference: {fileID: 0}
    - target: {fileID: -8679921383154817045, guid: 85b09f6a199863046815fe70a0de7c80, type: 3}
      propertyPath: m_LocalRotation.w
      value: 0.7251676
      objectReference: {fileID: 0}
    - target: {fileID: -8679921383154817045, guid: 85b09f6a199863046815fe70a0de7c80, type: 3}
      propertyPath: m_LocalRotation.x
      value: -0
      objectReference: {fileID: 0}
    - target: {fileID: -8679921383154817045, guid: 85b09f6a199863046815fe70a0de7c80, type: 3}
      propertyPath: m_LocalRotation.y
      value: -0.6885724
      objectReference: {fileID: 0}
    - target: {fileID: -8679921383154817045, guid: 85b09f6a199863046815fe70a0de7c80, type: 3}
      propertyPath: m_LocalRotation.z
      value: -0
      objectReference: {fileID: 0}
    - target: {fileID: -8679921383154817045, guid: 85b09f6a199863046815fe70a0de7c80, type: 3}
      propertyPath: m_LocalEulerAnglesHint.x
      value: 0
      objectReference: {fileID: 0}
    - target: {fileID: -8679921383154817045, guid: 85b09f6a199863046815fe70a0de7c80, type: 3}
      propertyPath: m_LocalEulerAnglesHint.y
      value: -87.034
      objectReference: {fileID: 0}
    - target: {fileID: -8679921383154817045, guid: 85b09f6a199863046815fe70a0de7c80, type: 3}
      propertyPath: m_LocalEulerAnglesHint.z
      value: 0
      objectReference: {fileID: 0}
    - target: {fileID: -7612486886080085485, guid: 85b09f6a199863046815fe70a0de7c80, type: 3}
      propertyPath: m_LocalScale.x
      value: 5.7716374
      objectReference: {fileID: 0}
    - target: {fileID: -7612486886080085485, guid: 85b09f6a199863046815fe70a0de7c80, type: 3}
      propertyPath: m_LocalScale.y
      value: 6.5913405
      objectReference: {fileID: 0}
    - target: {fileID: -7612486886080085485, guid: 85b09f6a199863046815fe70a0de7c80, type: 3}
      propertyPath: m_LocalScale.z
      value: 6.2203045
      objectReference: {fileID: 0}
    - target: {fileID: -7612486886080085485, guid: 85b09f6a199863046815fe70a0de7c80, type: 3}
      propertyPath: m_LocalPosition.x
      value: 7.59
      objectReference: {fileID: 0}
    - target: {fileID: -7612486886080085485, guid: 85b09f6a199863046815fe70a0de7c80, type: 3}
      propertyPath: m_LocalPosition.y
      value: -6.34
      objectReference: {fileID: 0}
    - target: {fileID: -7612486886080085485, guid: 85b09f6a199863046815fe70a0de7c80, type: 3}
      propertyPath: m_LocalPosition.z
      value: -5.9
      objectReference: {fileID: 0}
    - target: {fileID: -7612486886080085485, guid: 85b09f6a199863046815fe70a0de7c80, type: 3}
      propertyPath: m_LocalRotation.w
      value: 0.7067929
      objectReference: {fileID: 0}
    - target: {fileID: -7612486886080085485, guid: 85b09f6a199863046815fe70a0de7c80, type: 3}
      propertyPath: m_LocalRotation.x
      value: -0.7067929
      objectReference: {fileID: 0}
    - target: {fileID: -7612486886080085485, guid: 85b09f6a199863046815fe70a0de7c80, type: 3}
      propertyPath: m_LocalRotation.y
      value: -0.021067591
      objectReference: {fileID: 0}
    - target: {fileID: -7612486886080085485, guid: 85b09f6a199863046815fe70a0de7c80, type: 3}
      propertyPath: m_LocalRotation.z
      value: -0.021067591
      objectReference: {fileID: 0}
    - target: {fileID: -7612486886080085485, guid: 85b09f6a199863046815fe70a0de7c80, type: 3}
      propertyPath: m_LocalEulerAnglesHint.x
      value: -90
      objectReference: {fileID: 0}
    - target: {fileID: -7612486886080085485, guid: 85b09f6a199863046815fe70a0de7c80, type: 3}
      propertyPath: m_LocalEulerAnglesHint.z
      value: -3.415
      objectReference: {fileID: 0}
    - target: {fileID: -5020543937866837999, guid: 85b09f6a199863046815fe70a0de7c80, type: 3}
      propertyPath: m_Materials.Array.data[0]
      value: 
      objectReference: {fileID: 2100000, guid: 1ded3f6d8a680a84c8505740822ccbce, type: 2}
    - target: {fileID: 919132149155446097, guid: 85b09f6a199863046815fe70a0de7c80, type: 3}
      propertyPath: m_Name
      value: Samsung Smart TV 55 Zoll_dae
      objectReference: {fileID: 0}
    - target: {fileID: 1440894323397927523, guid: 85b09f6a199863046815fe70a0de7c80, type: 3}
      propertyPath: m_LocalScale.x
      value: 0.4364
      objectReference: {fileID: 0}
    - target: {fileID: 1440894323397927523, guid: 85b09f6a199863046815fe70a0de7c80, type: 3}
      propertyPath: m_LocalScale.z
      value: 0.4697
      objectReference: {fileID: 0}
    - target: {fileID: 1440894323397927523, guid: 85b09f6a199863046815fe70a0de7c80, type: 3}
      propertyPath: m_LocalPosition.x
      value: 7.7
      objectReference: {fileID: 0}
    - target: {fileID: 1440894323397927523, guid: 85b09f6a199863046815fe70a0de7c80, type: 3}
      propertyPath: m_LocalPosition.y
      value: -6.41
      objectReference: {fileID: 0}
    - target: {fileID: 1440894323397927523, guid: 85b09f6a199863046815fe70a0de7c80, type: 3}
      propertyPath: m_LocalPosition.z
      value: -6.58
      objectReference: {fileID: 0}
    - target: {fileID: 1440894323397927523, guid: 85b09f6a199863046815fe70a0de7c80, type: 3}
      propertyPath: m_LocalRotation.w
      value: 0.70686376
      objectReference: {fileID: 0}
    - target: {fileID: 1440894323397927523, guid: 85b09f6a199863046815fe70a0de7c80, type: 3}
      propertyPath: m_LocalRotation.x
      value: -0.70686376
      objectReference: {fileID: 0}
    - target: {fileID: 1440894323397927523, guid: 85b09f6a199863046815fe70a0de7c80, type: 3}
      propertyPath: m_LocalRotation.y
      value: -0.018537734
      objectReference: {fileID: 0}
    - target: {fileID: 1440894323397927523, guid: 85b09f6a199863046815fe70a0de7c80, type: 3}
      propertyPath: m_LocalRotation.z
      value: -0.018537793
      objectReference: {fileID: 0}
    - target: {fileID: 1440894323397927523, guid: 85b09f6a199863046815fe70a0de7c80, type: 3}
      propertyPath: m_LocalEulerAnglesHint.x
      value: -90
      objectReference: {fileID: 0}
    - target: {fileID: 1440894323397927523, guid: 85b09f6a199863046815fe70a0de7c80, type: 3}
      propertyPath: m_LocalEulerAnglesHint.z
      value: -3.005
      objectReference: {fileID: 0}
    m_RemovedComponents: []
  m_SourcePrefab: {fileID: 100100000, guid: 85b09f6a199863046815fe70a0de7c80, type: 3}
--- !u!1001 &1938480256
PrefabInstance:
  m_ObjectHideFlags: 0
  serializedVersion: 2
  m_Modification:
    m_TransformParent: {fileID: 0}
    m_Modifications:
    - target: {fileID: -8679921383154817045, guid: 9f134b3e712a3534ba2a2ed1b1ad33c9, type: 3}
      propertyPath: m_RootOrder
      value: 12
      objectReference: {fileID: 0}
    - target: {fileID: -8679921383154817045, guid: 9f134b3e712a3534ba2a2ed1b1ad33c9, type: 3}
      propertyPath: m_LocalPosition.x
      value: 8.240421
      objectReference: {fileID: 0}
    - target: {fileID: -8679921383154817045, guid: 9f134b3e712a3534ba2a2ed1b1ad33c9, type: 3}
      propertyPath: m_LocalPosition.y
      value: 2.159996
      objectReference: {fileID: 0}
    - target: {fileID: -8679921383154817045, guid: 9f134b3e712a3534ba2a2ed1b1ad33c9, type: 3}
      propertyPath: m_LocalPosition.z
      value: 24.010752
      objectReference: {fileID: 0}
    - target: {fileID: -8679921383154817045, guid: 9f134b3e712a3534ba2a2ed1b1ad33c9, type: 3}
      propertyPath: m_LocalRotation.w
      value: 1
      objectReference: {fileID: 0}
    - target: {fileID: -8679921383154817045, guid: 9f134b3e712a3534ba2a2ed1b1ad33c9, type: 3}
      propertyPath: m_LocalRotation.x
      value: 0
      objectReference: {fileID: 0}
    - target: {fileID: -8679921383154817045, guid: 9f134b3e712a3534ba2a2ed1b1ad33c9, type: 3}
      propertyPath: m_LocalRotation.y
      value: -0
      objectReference: {fileID: 0}
    - target: {fileID: -8679921383154817045, guid: 9f134b3e712a3534ba2a2ed1b1ad33c9, type: 3}
      propertyPath: m_LocalRotation.z
      value: -0
      objectReference: {fileID: 0}
    - target: {fileID: -8679921383154817045, guid: 9f134b3e712a3534ba2a2ed1b1ad33c9, type: 3}
      propertyPath: m_LocalEulerAnglesHint.x
      value: 0
      objectReference: {fileID: 0}
    - target: {fileID: -8679921383154817045, guid: 9f134b3e712a3534ba2a2ed1b1ad33c9, type: 3}
      propertyPath: m_LocalEulerAnglesHint.y
      value: 0
      objectReference: {fileID: 0}
    - target: {fileID: -8679921383154817045, guid: 9f134b3e712a3534ba2a2ed1b1ad33c9, type: 3}
      propertyPath: m_LocalEulerAnglesHint.z
      value: 0
      objectReference: {fileID: 0}
    - target: {fileID: 919132149155446097, guid: 9f134b3e712a3534ba2a2ed1b1ad33c9, type: 3}
      propertyPath: m_Name
      value: Dusine
      objectReference: {fileID: 0}
    - target: {fileID: 7573179777928485962, guid: 9f134b3e712a3534ba2a2ed1b1ad33c9, type: 3}
      propertyPath: m_LocalScale.x
      value: 1.1075
      objectReference: {fileID: 0}
    - target: {fileID: 7573179777928485962, guid: 9f134b3e712a3534ba2a2ed1b1ad33c9, type: 3}
      propertyPath: m_LocalScale.z
      value: 1.0823
      objectReference: {fileID: 0}
    m_RemovedComponents: []
  m_SourcePrefab: {fileID: 100100000, guid: 9f134b3e712a3534ba2a2ed1b1ad33c9, type: 3}
--- !u!1001 &2060841532
PrefabInstance:
  m_ObjectHideFlags: 0
  serializedVersion: 2
  m_Modification:
    m_TransformParent: {fileID: 0}
    m_Modifications:
    - target: {fileID: -8679921383154817045, guid: 1af5d61a29898924496a8e43c1e95f39, type: 3}
      propertyPath: m_RootOrder
      value: 3
      objectReference: {fileID: 0}
    - target: {fileID: -8679921383154817045, guid: 1af5d61a29898924496a8e43c1e95f39, type: 3}
      propertyPath: m_LocalPosition.x
      value: 4.54
      objectReference: {fileID: 0}
    - target: {fileID: -8679921383154817045, guid: 1af5d61a29898924496a8e43c1e95f39, type: 3}
      propertyPath: m_LocalPosition.y
      value: 49.4
      objectReference: {fileID: 0}
    - target: {fileID: -8679921383154817045, guid: 1af5d61a29898924496a8e43c1e95f39, type: 3}
      propertyPath: m_LocalPosition.z
      value: 4.156827
      objectReference: {fileID: 0}
    - target: {fileID: -8679921383154817045, guid: 1af5d61a29898924496a8e43c1e95f39, type: 3}
      propertyPath: m_LocalRotation.w
      value: 1
      objectReference: {fileID: 0}
    - target: {fileID: -8679921383154817045, guid: 1af5d61a29898924496a8e43c1e95f39, type: 3}
      propertyPath: m_LocalRotation.x
      value: 0
      objectReference: {fileID: 0}
    - target: {fileID: -8679921383154817045, guid: 1af5d61a29898924496a8e43c1e95f39, type: 3}
      propertyPath: m_LocalRotation.y
      value: -0
      objectReference: {fileID: 0}
    - target: {fileID: -8679921383154817045, guid: 1af5d61a29898924496a8e43c1e95f39, type: 3}
      propertyPath: m_LocalRotation.z
      value: -0
      objectReference: {fileID: 0}
    - target: {fileID: -8679921383154817045, guid: 1af5d61a29898924496a8e43c1e95f39, type: 3}
      propertyPath: m_LocalEulerAnglesHint.x
      value: 0
      objectReference: {fileID: 0}
    - target: {fileID: -8679921383154817045, guid: 1af5d61a29898924496a8e43c1e95f39, type: 3}
      propertyPath: m_LocalEulerAnglesHint.y
      value: 0
      objectReference: {fileID: 0}
    - target: {fileID: -8679921383154817045, guid: 1af5d61a29898924496a8e43c1e95f39, type: 3}
      propertyPath: m_LocalEulerAnglesHint.z
      value: 0
      objectReference: {fileID: 0}
    - target: {fileID: -2724535874777551882, guid: 1af5d61a29898924496a8e43c1e95f39, type: 3}
      propertyPath: m_Materials.Array.data[0]
      value: 
      objectReference: {fileID: 2100000, guid: 7f77662945193ba4d93e123c83c111ff, type: 2}
    - target: {fileID: -2434301844110176068, guid: 1af5d61a29898924496a8e43c1e95f39, type: 3}
      propertyPath: m_LocalScale.x
      value: 0.1039
      objectReference: {fileID: 0}
    - target: {fileID: -2434301844110176068, guid: 1af5d61a29898924496a8e43c1e95f39, type: 3}
      propertyPath: m_LocalScale.y
      value: 0.06277936
      objectReference: {fileID: 0}
    - target: {fileID: -2434301844110176068, guid: 1af5d61a29898924496a8e43c1e95f39, type: 3}
      propertyPath: m_LocalScale.z
      value: 0.045770086
      objectReference: {fileID: 0}
    - target: {fileID: -2434301844110176068, guid: 1af5d61a29898924496a8e43c1e95f39, type: 3}
      propertyPath: m_LocalPosition.x
      value: -4.4805
      objectReference: {fileID: 0}
    - target: {fileID: -2434301844110176068, guid: 1af5d61a29898924496a8e43c1e95f39, type: 3}
      propertyPath: m_LocalPosition.y
      value: -44.7491
      objectReference: {fileID: 0}
    - target: {fileID: -2434301844110176068, guid: 1af5d61a29898924496a8e43c1e95f39, type: 3}
      propertyPath: m_LocalPosition.z
      value: 0.1829
      objectReference: {fileID: 0}
    - target: {fileID: 919132149155446097, guid: 1af5d61a29898924496a8e43c1e95f39, type: 3}
      propertyPath: m_Name
      value: window
      objectReference: {fileID: 0}
    m_RemovedComponents: []
  m_SourcePrefab: {fileID: 100100000, guid: 1af5d61a29898924496a8e43c1e95f39, type: 3}
--- !u!1001 &2130123810
PrefabInstance:
  m_ObjectHideFlags: 0
  serializedVersion: 2
  m_Modification:
    m_TransformParent: {fileID: 0}
    m_Modifications:
    - target: {fileID: -8679921383154817045, guid: c077a6e7e2d559f41b0739ce6c523b8b, type: 3}
      propertyPath: m_RootOrder
      value: 0
      objectReference: {fileID: 0}
    - target: {fileID: -8679921383154817045, guid: c077a6e7e2d559f41b0739ce6c523b8b, type: 3}
      propertyPath: m_LocalPosition.x
      value: 7.6405883
      objectReference: {fileID: 0}
    - target: {fileID: -8679921383154817045, guid: c077a6e7e2d559f41b0739ce6c523b8b, type: 3}
      propertyPath: m_LocalPosition.y
      value: 5.6694965
      objectReference: {fileID: 0}
    - target: {fileID: -8679921383154817045, guid: c077a6e7e2d559f41b0739ce6c523b8b, type: 3}
      propertyPath: m_LocalPosition.z
      value: 5.133457
      objectReference: {fileID: 0}
    - target: {fileID: -8679921383154817045, guid: c077a6e7e2d559f41b0739ce6c523b8b, type: 3}
      propertyPath: m_LocalRotation.w
      value: 1
      objectReference: {fileID: 0}
    - target: {fileID: -8679921383154817045, guid: c077a6e7e2d559f41b0739ce6c523b8b, type: 3}
      propertyPath: m_LocalRotation.x
      value: 0
      objectReference: {fileID: 0}
    - target: {fileID: -8679921383154817045, guid: c077a6e7e2d559f41b0739ce6c523b8b, type: 3}
      propertyPath: m_LocalRotation.y
      value: -0
      objectReference: {fileID: 0}
    - target: {fileID: -8679921383154817045, guid: c077a6e7e2d559f41b0739ce6c523b8b, type: 3}
      propertyPath: m_LocalRotation.z
      value: -0
      objectReference: {fileID: 0}
    - target: {fileID: -8679921383154817045, guid: c077a6e7e2d559f41b0739ce6c523b8b, type: 3}
      propertyPath: m_LocalEulerAnglesHint.x
      value: 0
      objectReference: {fileID: 0}
    - target: {fileID: -8679921383154817045, guid: c077a6e7e2d559f41b0739ce6c523b8b, type: 3}
      propertyPath: m_LocalEulerAnglesHint.y
      value: 0
      objectReference: {fileID: 0}
    - target: {fileID: -8679921383154817045, guid: c077a6e7e2d559f41b0739ce6c523b8b, type: 3}
      propertyPath: m_LocalEulerAnglesHint.z
      value: 0
      objectReference: {fileID: 0}
    - target: {fileID: -7635826562936255635, guid: c077a6e7e2d559f41b0739ce6c523b8b, type: 3}
      propertyPath: m_Materials.Array.data[0]
      value: 
      objectReference: {fileID: 2100000, guid: c0d221296d08c3440a99a792f656ee4e, type: 2}
    - target: {fileID: 919132149155446097, guid: c077a6e7e2d559f41b0739ce6c523b8b, type: 3}
      propertyPath: m_Name
      value: chusig1
      objectReference: {fileID: 0}
    - target: {fileID: 1151388028547126963, guid: c077a6e7e2d559f41b0739ce6c523b8b, type: 3}
      propertyPath: m_LocalScale.x
      value: 0.9427
      objectReference: {fileID: 0}
    - target: {fileID: 1151388028547126963, guid: c077a6e7e2d559f41b0739ce6c523b8b, type: 3}
      propertyPath: m_LocalScale.y
      value: 0.8219531
      objectReference: {fileID: 0}
    - target: {fileID: 1151388028547126963, guid: c077a6e7e2d559f41b0739ce6c523b8b, type: 3}
      propertyPath: m_LocalScale.z
      value: 0.9393
      objectReference: {fileID: 0}
    - target: {fileID: 1151388028547126963, guid: c077a6e7e2d559f41b0739ce6c523b8b, type: 3}
      propertyPath: m_LocalPosition.x
      value: -0.1247
      objectReference: {fileID: 0}
    - target: {fileID: 1151388028547126963, guid: c077a6e7e2d559f41b0739ce6c523b8b, type: 3}
      propertyPath: m_LocalPosition.y
      value: 0.0303
      objectReference: {fileID: 0}
    - target: {fileID: 1151388028547126963, guid: c077a6e7e2d559f41b0739ce6c523b8b, type: 3}
      propertyPath: m_LocalPosition.z
      value: -1.1451
      objectReference: {fileID: 0}
    m_RemovedComponents: []
  m_SourcePrefab: {fileID: 100100000, guid: c077a6e7e2d559f41b0739ce6c523b8b, type: 3}
